[
  {
    "_id": -1,
    "campaignName": "The Role of Guns in America",
    "leftFaction": {
      "id": 1,
      "name": "The National Rifle Association",
      "imagePath": "img/guns-guns-guns/national-rifle-association.png",
      "description": "The National Rifle Association is America's foremost defender of Second Amendment rights. Since its inception in 1871, it has also been the premier firearms education organization in the world. Purposes and objectives of the NRA include protecting the right to keep and bear arms, furthering the shooting sports, marksmanship and safety training, and the promotion of hunter safety.",
      "link": "https://home.nra.org/",
      "color":"red",
      "votes":[{
        "id":-1,
        "date":"2/14/2015",
        "count":5
      },
        {
          "id":-1,
          "date":"2/16/2015",
          "count":6
        },
        {
          "id":-1,
          "date":"2/17/2015",
          "count":9
        },
        {
          "id":-1,
          "date":"2/18/2015",
          "count":13
        }]
    },
    "rightFaction": {
      "id": 2,
      "name": "Coalition to End Gun Violence",
      "imagePath": "img/guns-guns-guns/stop-gun-violence.png",
      "description": "The Coalition to Stop Gun Violence has lead the way in exposing the dangerous insurrectionist ideology promoted by the NRA and other in the pro-gun movement",
      "link": "http://csgv.org/",
      "color": "blue",
      "votes":[{
        "id":-1,
        "date":"2/14/2015",
        "count":2
      },
        {
          "id":-1,
          "date":"2/16/2015",
          "count":6
        },
        {
          "id":-1,
          "date":"2/17/2015",
          "count":2
        },
        {
          "id":-1,
          "date":"2/18/2015",
          "count":1
        }]
    },
    "orderNumber": 0,
    "startDate": "2/13/2015",
    "endDate": "2/25/2015"
  },
  {
    "_id": -1,
    "campaignName": "Politics 2016",
    "leftFaction": {
      "id": 3,
      "name": "Donald Trump for President",
      "imagePath": "img/elections-2016/trump.jpg",
      "description": "Donald J. Trump is the very definition of the American success story, continually setting the standards of excellence while expanding his interests in real estate, sports and entertainment. He is a graduate of the Wharton School of Finance. An accomplished author, Mr. Trump has authored over fifteen bestsellers, and his first book, The Art of the Deal, is considered a business classic and one of the most successful business books of all time.",
      "link": "https://www.donaldjtrump.com/",
      "color":"red",
      "votes":[]
    },
    "rightFaction": {
      "id": 4,
      "name": "Bernie Sanders for President",
      "imagePath": "img/elections-2016/bernie.jpg",
      "description": "Bernie Sanders is a Democratic candidate for President of the United States. In 2006, he was elected to the U.S. Senate after 16 years as Vermont’s sole congressman in the House of Representatives. Bernie is now serving his second term in the U.S. Senate after winning re-election in 2012 with 71 percent of the vote. Born in Brooklyn, New York, he attended James Madison High School, Brooklyn College, and the University of Chicago. After graduating, he moved to Vermont where he worked as a carpenter and documentary filmmaker. In 1981, he was elected as mayor of Burlington, the state’s largest city, by a mere 10 votes. As mayor, Bernie’s leadership helped transform Burlington into one of the most exciting and livable small cities in America. Under his administration, the city made major strides in affordable housing, progressive taxation, environmental protection, child care, women’s rights, youth programs and the arts. In Congress, Bernie has fought tirelessly for working families, focusing on the shrinking middle class and growing gap between the rich and everyone else. Bernie has been called a “practical and successful legislator” and he was dubbed the “amendment king” in the House of Representatives for passing more amendments than any other member of Congress. As chairman of the Senate Committee on Veterans’ Affairs, Bernie worked across the aisle to “bridge Washington’s toxic partisan divide and cut one of the most significant deals in years.” In 2015, Democratic leadership tapped Bernie to serve as the caucus’ ranking member on the Senate Budget Committee.",
      "link": "https://berniesanders.com/",
      "color":"blue",
      "votes":[]
    },
    "orderNumber": 1,
    "startDate": null,
    "endDate": null
  }
]