[
  {
    "id": "1",
    "title": "Challenges",
    "body": "What will be the next thing that challenges us, Toby? That makes us go farther and work harder? Do you know that when smallpox was eradicated, it was considered the single greatest humanitarian achievement of this century?",
    "userId": 1,
    "userName": "POTUS",
    "grows": 105,
    "burns": 2,
    "replies": [
      {
        "id": "Post1",
        "title": "Challenges",
        "body": "Surely we can do it again, as we did in the times when our eyes looked towards the heavens and, with outstretched fingers, we touched the face of God.",
        "userId": 1,
        "userName": "POTUS",
        "grows": 105,
        "burns": 2,
        "replies": []
      },
      {
        "id": "Post1",
        "title": "Challenges",
        "body": "Here's to absent friends and the ones that are here now. Cheers. ",
        "userId": 1,
        "userName": "POTUS",
        "grows": 105,
        "burns": 2,
        "replies": []
      }
    ],
    "category": "Movies"
  },
  {
    "id": "2",
    "title": "War",
    "body": "You're all frightened... as well you should be. Not since the Protestant-Catholic wars in the 16th Century has Western society known anything remotely comparable to the subcontinent's religious malevolence. Uh, to a lesser observer, the intensity of the emotional frenzy is so illogical as to border on mass psychosis. but, as has been said by kings and queens, I am not a lesser observer.",
    "userId": 2,
    "userName": "Lord John Marbury",
    "grows": 105,
    "burns": 2,
    "replies": [
      {
        "id": "Post1",
        "title": "War",
        "body": "John, there's a quote from Revelations I... .",
        "userId": 1,
        "userName": "POTUS",
        "grows": 2,
        "burns": 2,
        "replies": []
      },
      {
        "id": "Post1",
        "title": "War",
        "body": "And I looked and I beheld a pale horse, and the name that sat on him was Death and, Hell followed with him.",
        "userId": 2,
        "userName": "Lord John Marbury",
        "grows": 3,
        "burns": 2,
        "replies": []
      }
    ],
    "category": "Movies"
  },
  {
    "id": "3",
    "title": "Goodfellas ",
    "body": "Ever since I can remember I always wanted to be a gangster. To me that was better than being president of the United States. To be a gangster was to own the world.",
    "userId": 3,
    "userName": "Henry Hill",
    "grows": 10,
    "burns": 2,
    "replies": [],
    "category": "Movies"
  },
  {
    "id": "4",
    "title": "The Shawshank Redemption ",
    "body": "Get busy living, or get busy dying.",
    "userId": 4,
    "userName": "Andy Dufresne",
    "grows": 10,
    "burns": 2,
    "replies": [],
    "category": "Movies"
  },
  {
    "id": "5",
    "title": "Sudden Impact ",
    "body": "Go ahead, make my day.",
    "userId": 4,
    "userName": "Harry Callaghan",
    "grows": 10,
    "burns": 2,
    "replies": [],
    "category": "Movies"
  },
  {
    "id": "6",
    "title": "Taken ",
    "body": "If you are looking for ransom, I can tell you I don't have money. But what I do have are a very particular set of skills, skills I have acquired over a very long career. Skills that make me a nightmare for people like you. ",
    "userId": 4,
    "userName": "Bryan Mills",
    "grows": 10,
    "burns": 2,
    "replies": [],
    "category": "Movies"
  },
  {
    "id": "7",
    "title": "The Godfather ",
    "body": "I'm gonna make him an offer he can't refuse.",
    "userId": 4,
    "userName": "Don Corleone",
    "grows": 10,
    "burns": 2,
    "replies": [],
    "category": "Movies"
  },
  {
    "id": "8",
    "title": "The Truman Show ",
    "body": "In case I don't see ya, good afternoon, good evening, and good night!",
    "userId": 4,
    "userName": "Truman Burbank",
    "grows": 10,
    "burns": 2,
    "replies": [],
    "category": "Movies"
  },
  {
    "id": "9",
    "title": "Finding Nemo ",
    "body": "Just keep swimming",
    "userId": 4,
    "userName": "Dory",
    "grows": 10,
    "burns": 2,
    "replies": [],
    "category": "Movies"
  },
  {
    "id": "10",
    "title": "ET ",
    "body": "ET phone home",
    "userId": 4,
    "userName": "ET",
    "grows": 10,
    "burns": 2,
    "replies": [],
    "category": "Movies"
  },
  {
    "id": "11",
    "title": "Terrifying Words",
    "body": "The most terrifying words in the English language are: I'm from the government and I'm here to help.",
    "userId": 4,
    "userName": "Reagan",
    "grows": 11,
    "burns": 2,
    "replies": [
      {
        "id": "12",
        "title": "Terrifying Words",
        "body": "Government's view of the economy could be summed up in a few short phrases: If it moves, tax it. If it keeps moving, regulate it. And if it stops moving, subsidize it.",
        "userId": 1,
        "userName": "Reagan",
        "grows": 2,
        "burns": 2,
        "replies": [
          {
            "id": "13",
            "title": "Terrifying Words",
            "body": "Government's first duty is to protect the people, not run their lives.",
            "userId": 1,
            "userName": "Reagan",
            "grows": 2,
            "burns": 2,
            "replies": []
          }
        ]
      },
      {
        "id": "14",
        "title": "Terrifying Words",
        "body": "Government is like a baby. An alimentary canal with a big appetite at one end and no sense of responsibility at the other.",
        "userId": 1,
        "userName": "Reagan",
        "grows": 2,
        "burns": 2,
        "replies": []
      }
    ],
    "category": "Presidents"
  },
  {
    "id": "15",
    "title": "Cabinet",
    "body": "I have left orders to be awakened at any time in case of national emergency, even if I'm in a cabinet meeting.",
    "userId": 4,
    "userName": "Reagan",
    "grows": 10,
    "burns": 2,
    "replies": [],
    "category": "Presidents"
  },
  {
    "id": "16",
    "title": "Marines",
    "body": "Some people wonder all their lives if they've made a difference. The Marines don't have that problem.",
    "userId": 4,
    "userName": "Reagan",
    "grows": 10,
    "burns": 2,
    "replies": [],
    "category": "Presidents"
  },
  {
    "id": "16",
    "title": "One-Liners",
    "body": "Here's my strategy on the Cold War: We win, they lose.",
    "userId": 4,
    "userName": "Reagan",
    "grows": 10,
    "burns": 2,
    "replies": [
      {
        "id": "17",
        "title": "One-Liners",
        "body": "Of the four wars in my lifetime none came about because the U.S. was too strong.",
        "userId": 1,
        "userName": "Reagan",
        "grows": 2,
        "burns": 2,
        "replies": []
      },
      {
        "id": "18",
        "title": "One-Liners",
        "body": "Thomas Jefferson once said, 'We should never judge a president by his age, only by his works.' And ever since he told me that, I stopped worrying.",
        "userId": 1,
        "userName": "Reagan",
        "grows": 2,
        "burns": 2,
        "replies": []
      },
      {
        "id": "19",
        "title": "One-Liners",
        "body": "There are advantages to being elected President. The day after I was elected, I had my high school grades classified as top secret.",
        "userId": 1,
        "userName": "Reagan",
        "grows": 2,
        "burns": 2,
        "replies": []
      },
      {
        "id": "20",
        "title": "One-Liners",
        "body": "I want you to know also I will not make age an issue of this campaign. I am not going to exploit for political purposes my opponent's youth and inexperience. ",
        "userId": 1,
        "userName": "Reagan",
        "grows": 2,
        "burns": 2,
        "replies": []
      },
      {
        "id": "21",
        "title": "One-Liners",
        "body": "To his wife Nancy, after he was shot in a 1981 assassination attempt: Honey, I forgot to duck. ",
        "userId": 1,
        "userName": "Reagan",
        "grows": 2,
        "burns": 2,
        "replies": []
      },
      {
        "id": "22",
        "title": "One-Liners",
        "body": "To the medical team in the operating room just after his 1981 assassination attempt: I hope you're all Republicans. ",
        "userId": 1,
        "userName": "Reagan",
        "grows": 2,
        "burns": 2,
        "replies": []
      }
    ],
    "category": "Presidents"
  },
  {
    "id": "22",
    "title": "Tear Down this Wall",
    "body": "We welcome change and openness; for we believe that freedom and security go together, that the advance of human liberty can only strengthen the cause of world peace. There is one sign the Soviets can make that would be unmistakable, that would advance dramatically the cause of freedom and peace. General Secretary Gorbachev, if you seek peace, if you seek prosperity for the Soviet Union and eastern Europe, if you seek liberalization, come here to this gate. Mr. Gorbachev, open this gate. Mr. Gorbachev, tear down this wall!",
    "userId": 4,
    "userName": "Reagan",
    "grows": 10,
    "burns": 2,
    "replies": [],
    "category": "Presidents"
  },
  {
    "id": "23",
    "title": "Moon",
    "body": "We choose to go to the moon. We choose to go to the moon in this decade and do the other things, not because they are easy, but because they are hard",
    "userId": 4,
    "userName": "John F. Kennedy",
    "grows": 10,
    "burns": 2,
    "replies": [],
    "category": "Presidents"
  },
  {
    "id": "24",
    "title": "Ask Not What",
    "body": "And so, my fellow Americans: ask not what your country can do for you--ask what you can do for your country. My fellow citizens of the world: ask not what America will do for you, but what together we can do for the freedom of man. ",
    "userId": 4,
    "userName": "John F. Kennedy",
    "grows": 10,
    "burns": 2,
    "replies": [],
    "category": "Presidents"
  },
  {
    "id": "25",
    "title": "Ich bin ein Berliner",
    "body": "Two thousand years ago, the proudest boast was civis romanus sum [I am a Roman citizen]. Today, in the world of freedom, the proudest boast is 'Ich bin ein Berliner!'... All free men, wherever they may live, are citizens of Berlin, and therefore, as a free man, I take pride in the words 'Ich bin ein Berliner!'",
    "userId": 4,
    "userName": "John F. Kennedy",
    "grows": 10,
    "burns": 2,
    "replies": [],
    "category": "Presidents"
  },
  {
    "id": "26",
    "title": "End of Big Government",
    "body": "The era of big Government is over. But we cannot go back to the time when our citizens were left to fend for themselves.",
    "userId": 4,
    "userName": "Bill Clinton",
    "grows": 10,
    "burns": 2,
    "replies": [],
    "category": "Presidents"
  },
  {
    "id": "27",
    "title": "That Woman",
    "body": "I want you to listen to me. I'm going to say this again: I did not have sexual relations with that woman, Miss Lewinsky. I never told anybody to lie, not a single time; never.",
    "userId": 4,
    "userName": "Bill Clinton",
    "grows": 10,
    "burns": 2,
    "replies": [],
    "category": "Presidents"
  }
]
